[{"ID":1,"First Name":"Laura","Last Name":"Vasquez","Email":"lvasquez0@google.ca","Country":"Philippines"},
{"ID":2,"First Name":"Scott","Last Name":"Elliott","Email":"selliott1@sciencedirect.com","Country":"Kenya"},
{"ID":3,"First Name":"Theresa","Last Name":"Lee","Email":"tlee2@columbia.edu","Country":"Philippines"},
{"ID":4,"First Name":"Theresa","Last Name":"Reid","Email":"treid3@joomla.org","Country":"Spain"},
{"ID":5,"First Name":"Melissa","Last Name":"Reid","Email":"mreid4@marriott.com","Country":"Greece"},
{"ID":6,"First Name":"Antonio","Last Name":"Stewart","Email":"astewart5@a8.net","Country":"Indonesia"},
{"ID":7,"First Name":"Mark","Last Name":"Morrison","Email":"mmorrison6@microsoft.com","Country":"Bulgaria"},
{"ID":8,"First Name":"Carlos","Last Name":"Crawford","Email":"ccrawford7@bbb.org","Country":"Japan"},
{"ID":9,"First Name":"Stephen","Last Name":"Franklin","Email":"sfranklin8@craigslist.org","Country":"Brazil"},
{"ID":10,"First Name":"Jack","Last Name":"Mcdonald","Email":"jmcdonald9@toplist.cz","Country":"Russia"},
{"ID":11,"First Name":"Susan","Last Name":"Elliott","Email":"selliotta@github.io","Country":"Serbia"},
{"ID":12,"First Name":"Patrick","Last Name":"Garza","Email":"pgarzab@desdev.cn","Country":"Bulgaria"},
{"ID":13,"First Name":"Kimberly","Last Name":"Dunn","Email":"kdunnc@1688.com","Country":"China"},
{"ID":14,"First Name":"Ralph","Last Name":"Gray","Email":"rgrayd@sfgate.com","Country":"China"},
{"ID":15,"First Name":"Billy","Last Name":"Tucker","Email":"btuckere@google.fr","Country":"Brazil"},
{"ID":16,"First Name":"Christina","Last Name":"Oliver","Email":"coliverf@google.nl","Country":"China"},
{"ID":17,"First Name":"Peter","Last Name":"Hicks","Email":"phicksg@hc360.com","Country":"Philippines"},
{"ID":18,"First Name":"Keith","Last Name":"Brown","Email":"kbrownh@163.com","Country":"Ukraine"},
{"ID":19,"First Name":"Kathy","Last Name":"Gomez","Email":"kgomezi@sun.com","Country":"Argentina"},
{"ID":20,"First Name":"Melissa","Last Name":"Greene","Email":"mgreenej@ow.ly","Country":"China"},
{"ID":21,"First Name":"Stephanie","Last Name":"Carter","Email":"scarterk@multiply.com","Country":"Serbia"},
{"ID":22,"First Name":"Justin","Last Name":"Day","Email":"jdayl@constantcontact.com","Country":"Indonesia"},
{"ID":23,"First Name":"Emily","Last Name":"Hunter","Email":"ehunterm@com.com","Country":"Sierra Leone"},
{"ID":24,"First Name":"Peter","Last Name":"Meyer","Email":"pmeyern@infoseek.co.jp","Country":"United States"},
{"ID":25,"First Name":"Robert","Last Name":"Allen","Email":"ralleno@unc.edu","Country":"Philippines"},
{"ID":26,"First Name":"Peter","Last Name":"Ryan","Email":"pryanp@ihg.com","Country":"Brazil"},
{"ID":27,"First Name":"Elizabeth","Last Name":"Knight","Email":"eknightq@imgur.com","Country":"Italy"},
{"ID":28,"First Name":"Theresa","Last Name":"Fisher","Email":"tfisherr@constantcontact.com","Country":"Bhutan"},
{"ID":29,"First Name":"Ruth","Last Name":"Sanders","Email":"rsanderss@netvibes.com","Country":"Canada"},
{"ID":30,"First Name":"Angela","Last Name":"Garcia","Email":"agarciat@thetimes.co.uk","Country":"Brazil"},
{"ID":31,"First Name":"Rose","Last Name":"Bennett","Email":"rbennettu@wiley.com","Country":"China"},
{"ID":32,"First Name":"Marie","Last Name":"Lopez","Email":"mlopezv@phoca.cz","Country":"Philippines"},
{"ID":33,"First Name":"Joe","Last Name":"Price","Email":"jpricew@patch.com","Country":"Philippines"},
{"ID":34,"First Name":"Bobby","Last Name":"Foster","Email":"bfosterx@google.com","Country":"China"},
{"ID":35,"First Name":"Russell","Last Name":"Cooper","Email":"rcoopery@wordpress.com","Country":"Russia"},
{"ID":36,"First Name":"Lori","Last Name":"Gonzales","Email":"lgonzalesz@shareasale.com","Country":"China"},
{"ID":37,"First Name":"Amanda","Last Name":"Powell","Email":"apowell10@domainmarket.com","Country":"Portugal"},
{"ID":38,"First Name":"Walter","Last Name":"Wagner","Email":"wwagner11@360.cn","Country":"Indonesia"},
{"ID":39,"First Name":"Judith","Last Name":"Green","Email":"jgreen12@qq.com","Country":"China"},
{"ID":40,"First Name":"Samuel","Last Name":"Carpenter","Email":"scarpenter13@prweb.com","Country":"China"},
{"ID":41,"First Name":"Martin","Last Name":"Meyer","Email":"mmeyer14@usda.gov","Country":"Brazil"},
{"ID":42,"First Name":"Scott","Last Name":"Baker","Email":"sbaker15@ycombinator.com","Country":"Indonesia"},
{"ID":43,"First Name":"Jerry","Last Name":"Palmer","Email":"jpalmer16@un.org","Country":"Sierra Leone"},
{"ID":44,"First Name":"Sara","Last Name":"Moreno","Email":"smoreno17@joomla.org","Country":"Cambodia"},
{"ID":45,"First Name":"Samuel","Last Name":"Gray","Email":"sgray18@opera.com","Country":"Chile"},
{"ID":46,"First Name":"Kathleen","Last Name":"Knight","Email":"kknight19@java.com","Country":"Czech Republic"},
{"ID":47,"First Name":"Scott","Last Name":"Cook","Email":"scook1a@is.gd","Country":"Peru"},
{"ID":48,"First Name":"Lisa","Last Name":"Snyder","Email":"lsnyder1b@feedburner.com","Country":"Canada"},
{"ID":49,"First Name":"Jeremy","Last Name":"Fuller","Email":"jfuller1c@clickbank.net","Country":"China"},
{"ID":50,"First Name":"Heather","Last Name":"Nguyen","Email":"hnguyen1d@weather.com","Country":"Philippines"},
{"ID":51,"First Name":"Alice","Last Name":"Sullivan","Email":"asullivan1e@google.cn","Country":"France"},
{"ID":52,"First Name":"Randy","Last Name":"Green","Email":"rgreen1f@domainmarket.com","Country":"China"},
{"ID":53,"First Name":"Steven","Last Name":"Martin","Email":"smartin1g@vkontakte.ru","Country":"Canada"},
{"ID":54,"First Name":"Julia","Last Name":"Garrett","Email":"jgarrett1h@illinois.edu","Country":"Palestinian Territory"},
{"ID":55,"First Name":"Earl","Last Name":"Harvey","Email":"eharvey1i@disqus.com","Country":"Ghana"},
{"ID":56,"First Name":"Timothy","Last Name":"Dunn","Email":"tdunn1j@istockphoto.com","Country":"Indonesia"},
{"ID":57,"First Name":"Samuel","Last Name":"Phillips","Email":"sphillips1k@cnbc.com","Country":"China"},
{"ID":58,"First Name":"Karen","Last Name":"Fowler","Email":"kfowler1l@about.com","Country":"Russia"},
{"ID":59,"First Name":"Lois","Last Name":"Day","Email":"lday1m@goo.ne.jp","Country":"Japan"},
{"ID":60,"First Name":"Russell","Last Name":"Hamilton","Email":"rhamilton1n@quantcast.com","Country":"China"},
{"ID":61,"First Name":"Kenneth","Last Name":"Perez","Email":"kperez1o@bandcamp.com","Country":"Indonesia"},
{"ID":62,"First Name":"Joshua","Last Name":"Reynolds","Email":"jreynolds1p@163.com","Country":"China"},
{"ID":63,"First Name":"Terry","Last Name":"Hamilton","Email":"thamilton1q@flavors.me","Country":"Poland"},
{"ID":64,"First Name":"Sharon","Last Name":"Foster","Email":"sfoster1r@creativecommons.org","Country":"Philippines"},
{"ID":65,"First Name":"Christopher","Last Name":"Mitchell","Email":"cmitchell1s@techcrunch.com","Country":"Indonesia"},
{"ID":66,"First Name":"Ernest","Last Name":"Kim","Email":"ekim1t@dagondesign.com","Country":"Poland"},
{"ID":67,"First Name":"Jerry","Last Name":"Sanchez","Email":"jsanchez1u@newyorker.com","Country":"China"},
{"ID":68,"First Name":"Jimmy","Last Name":"Bowman","Email":"jbowman1v@geocities.jp","Country":"Brazil"},
{"ID":69,"First Name":"Kimberly","Last Name":"Graham","Email":"kgraham1w@go.com","Country":"China"},
{"ID":70,"First Name":"Tammy","Last Name":"Grant","Email":"tgrant1x@mapquest.com","Country":"Philippines"},
{"ID":71,"First Name":"Roy","Last Name":"Rodriguez","Email":"rrodriguez1y@economist.com","Country":"United States"},
{"ID":72,"First Name":"Tammy","Last Name":"Torres","Email":"ttorres1z@opensource.org","Country":"Sweden"},
{"ID":73,"First Name":"Diane","Last Name":"Bailey","Email":"dbailey20@photobucket.com","Country":"Cameroon"},
{"ID":74,"First Name":"Brenda","Last Name":"King","Email":"bking21@slideshare.net","Country":"Peru"},
{"ID":75,"First Name":"Margaret","Last Name":"Morrison","Email":"mmorrison22@umn.edu","Country":"Slovakia"},
{"ID":76,"First Name":"Elizabeth","Last Name":"Perry","Email":"eperry23@friendfeed.com","Country":"China"},
{"ID":77,"First Name":"Sandra","Last Name":"Campbell","Email":"scampbell24@comcast.net","Country":"Morocco"},
{"ID":78,"First Name":"Henry","Last Name":"Gonzalez","Email":"hgonzalez25@ted.com","Country":"Argentina"},
{"ID":79,"First Name":"Lisa","Last Name":"Austin","Email":"laustin26@google.com.br","Country":"Bhutan"},
{"ID":80,"First Name":"James","Last Name":"Wagner","Email":"jwagner27@ebay.com","Country":"Nigeria"},
{"ID":81,"First Name":"Patrick","Last Name":"Jordan","Email":"pjordan28@exblog.jp","Country":"Israel"},
{"ID":82,"First Name":"Doris","Last Name":"Adams","Email":"dadams29@joomla.org","Country":"France"},
{"ID":83,"First Name":"Angela","Last Name":"Freeman","Email":"afreeman2a@senate.gov","Country":"Russia"},
{"ID":84,"First Name":"Diane","Last Name":"Fox","Email":"dfox2b@thetimes.co.uk","Country":"United States"},
{"ID":85,"First Name":"Linda","Last Name":"Hanson","Email":"lhanson2c@purevolume.com","Country":"Czech Republic"},
{"ID":86,"First Name":"Cynthia","Last Name":"Sullivan","Email":"csullivan2d@wikipedia.org","Country":"Poland"},
{"ID":87,"First Name":"Janice","Last Name":"Gibson","Email":"jgibson2e@wp.com","Country":"Indonesia"},
{"ID":88,"First Name":"Russell","Last Name":"Henderson","Email":"rhenderson2f@ucla.edu","Country":"Poland"},
{"ID":89,"First Name":"Karen","Last Name":"Schmidt","Email":"kschmidt2g@admin.ch","Country":"Egypt"},
{"ID":90,"First Name":"Henry","Last Name":"Allen","Email":"hallen2h@parallels.com","Country":"Kenya"},
{"ID":91,"First Name":"Bobby","Last Name":"Rivera","Email":"brivera2i@ed.gov","Country":"Russia"},
{"ID":92,"First Name":"Jessica","Last Name":"Johnston","Email":"jjohnston2j@ycombinator.com","Country":"Brazil"},
{"ID":93,"First Name":"Helen","Last Name":"Crawford","Email":"hcrawford2k@constantcontact.com","Country":"Vietnam"},
{"ID":94,"First Name":"Ruth","Last Name":"Carpenter","Email":"rcarpenter2l@utexas.edu","Country":"Thailand"},
{"ID":95,"First Name":"George","Last Name":"Adams","Email":"gadams2m@google.es","Country":"Ukraine"},
{"ID":96,"First Name":"Raymond","Last Name":"Thompson","Email":"rthompson2n@toplist.cz","Country":"Philippines"},
{"ID":97,"First Name":"Laura","Last Name":"Simpson","Email":"lsimpson2o@shutterfly.com","Country":"Argentina"},
{"ID":98,"First Name":"Shawn","Last Name":"Rice","Email":"srice2p@istockphoto.com","Country":"Ireland"},
{"ID":99,"First Name":"Mark","Last Name":"Day","Email":"mday2q@icq.com","Country":"China"},
{"ID":100,"First Name":"Scott","Last Name":"Flores","Email":"sflores2r@mozilla.org","Country":"Philippines"}]